id;content;file_id;answer1
1;My family is a small family with three people. My mother is a great woman . She is currently unemployed and now staying at home doing housework. She was a single mom  for long time, but she always took care of me and my brother very well. She is very strong and good at cooking. My younger brother is studying in grade 10 at Overfelt high school. He always walks or takes the bus to school because he doesn't has driver . He is very amusing. He always jokes and tells something funny. He is a dynamic and talkative. I am working at Micro Lamba Wireless company. I'm studying English at San Jose City College. I'm very shy and quiet. In brief, we are a small family, but we always spend a good time together.;1;my name is luan
1;;2;great
1;;3;wonderful
1;;4;nice
